{"frames": [

{
	"filename": "GravityShip_Idle.png",
	"frame": {"x":2,"y":2,"w":5895,"h":445},
	"rotated": false,
	"trimmed": true,
	"spriteSourceSize": {"x":11,"y":10,"w":5895,"h":445},
	"sourceSize": {"w":5931,"h":459}
}],
"meta": {
	"app": "http://www.codeandweb.com/texturepacker",
	"version": "1.0",
	"image": "GravityShip_Idle.png",
	"format": "RGBA8888",
	"size": {"w":5899,"h":449},
	"scale": "1",
	"smartupdate": "$TexturePacker:SmartUpdate:18cf2481179d77a70bd7652729d7cd81:90ac0c346d4fa4c80447808925aedb2e:401374488c54cb06937956362e4f2b22$"
}
}
